Illustrations with the World Values Survey data in R
…
########## Split data by "Study" and analyze data with the fun.reg() function on each "Study"
FEM1.reg <- WVS %>% group_by(Study) %>% do(mod=(fun.reg(.)))
FEM1.reg

## Source: local data frame [100 x 2]
## Groups: <by row>
## 
## # A tibble: 100 x 2
##    Study mod       
##  * <dbl> <list>    
##  1     1 <dbl [20]>
##  2     2 <dbl [20]>
##  3     3 <dbl [20]>
##  4     4 <dbl [20]>
##  5     5 <dbl [20]>
##  6     6 <dbl [20]>
##  7     7 <dbl [20]>
##  8     8 <dbl [20]>
##  9     9 <dbl [20]>
## 10    10 <dbl [20]>
## # ... with 90 more rows
…
