…
########## Split the data by "Study" and analyze data with the fun.reg() function on each "Study"
FEM1.reg <- WVS %>% group_by(Study) %>% do(mod=(fun.reg(.)))
FEM1.reg
```

```
## Source: local data frame [100 x 2]
## Groups: <by row>
## 
## # A tibble: 100 x 2
##    Study mod       
##  * <dbl> <list>    
##  1     1 <dbl [20]>
##  2     2 <dbl [20]>
##  3     3 <dbl [20]>
##  4     4 <dbl [20]>
##  5     5 <dbl [20]>
##  6     6 <dbl [20]>
##  7     7 <dbl [20]>
##  8     8 <dbl [20]>
##  9     9 <dbl [20]>
## 10    10 <dbl [20]>
## # ... with 90 more rows
```
…
########## Split the data by Wave and Country and extract the correlation matrices
########## and sample size with the fun.cor() function
stage0.cov <- WVS %>% group_by(S002, S003) %>% do(mod=(fun.cov(.)))
stage0.cov
```

```
## Source: local data frame [238 x 3]
## Groups: <by row>
## 
## # A tibble: 238 x 3
##     S002  S003 mod       
##  * <int> <int> <list>    
##  1     1    32 <list [2]>
##  2     1    36 <list [2]>
##  3     1   246 <list [2]>
##  4     1   348 <list [2]>
##  5     1   392 <list [2]>
##  6     1   410 <list [2]>
##  7     1   484 <list [2]>
##  8     1   710 <list [2]>
##  9     2    32 <list [2]>
## 10     2    76 <list [2]>
## # ... with 228 more rows
```
…
