…
## Sort it by Year and Month
my.summary <- my.summary %>% arrange(Year, Month)
my.summary
```

```
## # A tibble: 255 x 6
## # Groups:   Year [22]
##     Year Month arr_delay dep_delay distance flights
##    <int> <int>     <dbl>     <dbl>    <dbl>   <int>
##  1  1987    10      6.51      5.12     594.    4486
##  2  1987    11      7.73      6.15     601.    4228
##  3  1987    12     13.8      12.0      602.    4404
##  4  1988     1     11.9      10.6      594.    4370
##  5  1988     2      9.12      8.49     603.    4126
##  6  1988     3      6.79      6.43     598.    4451
##  7  1988     4      5.29      6.04     603.    4273
##  8  1988     5      6.67      7.09     619.    4359
##  9  1988     6      4.15      5.32     604.    4313
## 10  1988     7      6.33      7.36     613.    4411
## # ... with 245 more rows
```
…
```r
## Run the analysis by Group and save the results in "meta.df0"
meta.df0 <- Airlines %>% group_by(Group) %>% do(mod=fun.reg(.))

## Group: 1 to 100
## mod: y1, y2, v11, v21, and v22
meta.df0
```

```
## Source: local data frame [100 x 2]
## Groups: <by row>
## 
## # A tibble: 100 x 2
##    Group mod      
##  * <dbl> <list>   
##  1     1 <dbl [5]>
##  2     2 <dbl [5]>
##  3     3 <dbl [5]>
##  4     4 <dbl [5]>
##  5     5 <dbl [5]>
##  6     6 <dbl [5]>
##  7     7 <dbl [5]>
##  8     8 <dbl [5]>
##  9     9 <dbl [5]>
## 10    10 <dbl [5]>
## # ... with 90 more rows
```
…
## Stratified split (random-effects meta-analysis)
* Since the data are grouped under `Year`, it is more appropriate to use the stratified split.


```r
## Run the analysis by Year
meta.df1 <- Airlines %>% group_by(Year) %>% do(mod=fun.reg(.))
meta.df1
```

```
## Source: local data frame [22 x 2]
## Groups: <by row>
## 
## # A tibble: 22 x 2
##     Year mod      
##  * <int> <list>   
##  1  1987 <dbl [5]>
##  2  1988 <dbl [5]>
##  3  1989 <dbl [5]>
##  4  1990 <dbl [5]>
##  5  1991 <dbl [5]>
##  6  1992 <dbl [5]>
##  7  1993 <dbl [5]>
##  8  1994 <dbl [5]>
##  9  1995 <dbl [5]>
## 10  1996 <dbl [5]>
## # ... with 12 more rows
```
…
